Task1
…
Difference of room price by counties and by countrie

meanCountie <- mix %>% filter (value !=0.0 , statistikkvariabel == "Price per room (kr)" ) %>% group_by(region) %>% summarize(mean_room_countie=mean(value))

meanCountrie <- meanCountie %>% filter(region=="Hele landet") %>% select(mean_room_countie)
meanCountrie <- as.numeric(meanCountrie)
meanCountie$difference <- meanCountie$mean_room_countie - meanCountrie
print(meanCountie)

## # A tibble: 22 x 3
##    region                 mean_room_countie difference
##    <chr>                              <dbl>      <dbl>
##  1 Akershus                            769.       7.42
##  2 Aust-Agder                          769.       7.54
##  3 Buskerud                            757.      -4.66
##  4 Finnmark - Finnmrku                733.     -28.4 
##  5 Hedmark                             698.     -63.0 
##  6 Hele landet                         761.       0   
##  7 Hordaland                           782.      21.2 
##  8 Mre og Romsdal                     710.     -51.3 
##  9 Nord-Trndelag (-2017)              716.     -45.3 
## 10 Nordland                            727.     -34.6 
## # ... with 12 more rows
…
